@startuml

title __SERIALIZER's Class Diagram__\n

  namespace fr.cnam.foad.nfa035.fileutils.streaming.serializer {
    abstract class serializer.streaming.fr.cnam.foad.nfa035.fileutils.AbstractStreamingImageDeserializer {
        + deserialize()
    }
  }
  

  namespace fr.cnam.foad.nfa035.fileutils.streaming.serializer {
    abstract class serializer.streaming.fr.cnam.foad.nfa035.fileutils.AbstractStreamingImageSerializer {
        + serialize()
    }
  }
  

  namespace fr.cnam.foad.nfa035.fileutils.streaming.serializer {
    class serializer.streaming.fr.cnam.foad.nfa035.fileutils.ImageDeserializerBase64StreamingImpl {
        - sourceOutputStream : OutputStream
        + ImageDeserializerBase64StreamingImpl()
        + getDeserializingStream()
        + getSourceOutputStream()
    }
  }
  

  namespace fr.cnam.foad.nfa035.fileutils.streaming.serializer {
    class serializer.streaming.fr.cnam.foad.nfa035.fileutils.ImageSerializerBase64StreamingImpl {
        + getSerializingStream()
        + getSourceInputStream()
    }
  }
  

  namespace fr.cnam.foad.nfa035.fileutils.streaming.serializer {
    interface serializer.streaming.fr.cnam.foad.nfa035.fileutils.ImageStreamingDeserializer {
        {abstract} + deserialize()
        {abstract} + getDeserializingStream()
        {abstract} + getSourceOutputStream()
    }
  }
  

  namespace fr.cnam.foad.nfa035.fileutils.streaming.serializer {
    interface serializer.streaming.fr.cnam.foad.nfa035.fileutils.ImageStreamingSerializer {
        {abstract} + getSerializingStream()
        {abstract} + getSourceInputStream()
        {abstract} + serialize()
    }
  }
  

  serializer.streaming.fr.cnam.foad.nfa035.fileutils.AbstractStreamingImageDeserializer .up.|> serializer.streaming.fr.cnam.foad.nfa035.fileutils.ImageStreamingDeserializer
  serializer.streaming.fr.cnam.foad.nfa035.fileutils.AbstractStreamingImageSerializer .up.|> serializer.streaming.fr.cnam.foad.nfa035.fileutils.ImageStreamingSerializer
  serializer.streaming.fr.cnam.foad.nfa035.fileutils.ImageDeserializerBase64StreamingImpl -up-|> serializer.streaming.fr.cnam.foad.nfa035.fileutils.AbstractStreamingImageDeserializer
  serializer.streaming.fr.cnam.foad.nfa035.fileutils.ImageSerializerBase64StreamingImpl -up-|> serializer.streaming.fr.cnam.foad.nfa035.fileutils.AbstractStreamingImageSerializer


right footer


PlantUML diagram generated by SketchIt! (https://bitbucket.org/pmesmeur/sketch.it)
For more information about this tool, please contact philippe.mesmeur@gmail.com
endfooter

@enduml
