@startuml

title __SIMPLEACCESS's Class Diagram__\n

  namespace fr.cnam.foad.nfa035.fileutils.simpleaccess {
    interface simpleaccess.fr.cnam.foad.nfa035.fileutils.ImageSerializer {
        {abstract} + deserialize()
        {abstract} + serialize()
    }
  }
  

  namespace fr.cnam.foad.nfa035.fileutils.simpleaccess {
    class simpleaccess.fr.cnam.foad.nfa035.fileutils.ImageSerializerBase64Impl {
        + deserialize()
        + serialize()
    }
  }
  

  simpleaccess.fr.cnam.foad.nfa035.fileutils.ImageSerializerBase64Impl .up.|> simpleaccess.fr.cnam.foad.nfa035.fileutils.ImageSerializer


right footer


PlantUML diagram generated by SketchIt! (https://bitbucket.org/pmesmeur/sketch.it)
For more information about this tool, please contact philippe.mesmeur@gmail.com
endfooter

@enduml
